<svg width="21" height="21" viewBox="0 0 21 21" fill="none" xmlns="http://www.w3.org/2000/svg">
<path d="M5.87602 13.5612L5.87607 13.5614C5.90351 13.6585 5.92733 13.6991 5.93699 13.7125C5.95265 13.7182 5.99962 13.7308 6.10507 13.7308H6.11529H6.1255H6.13572H6.14594H6.15616H6.16637H6.17659H6.18681H6.19703H6.20724H6.21746H6.22768H6.2379H6.24811H6.25833H6.26855H6.27876H6.28898H6.2992H6.30942H6.31963H6.32985H6.34007H6.35028H6.3605H6.37072H6.38094H6.39115H6.40137H6.41159H6.4218H6.43202H6.44224H6.45246H6.46267H6.47289H6.48311H6.49332H6.50354H6.51376H6.52397H6.53419H6.54441H6.55462H6.56484H6.57506H6.58527H6.59549H6.60571H6.61592H6.62614H6.63636H6.64658H6.65679H6.66701H6.67723H6.68744H6.69766H6.70788H6.71809H6.72831H6.73853H6.74874H6.75896H6.76918H6.77939H6.78961H6.79982H6.81004H6.82026H6.83047H6.84069H6.85091H6.86112H6.87134H6.88156H6.89177H6.90199H6.91221H6.92242H6.93264H6.94286H6.95307H6.96329H6.9735H6.98372H6.99394H7.00415H7.01437H7.02459H7.0348H7.04502H7.05523H7.06545H7.07567H7.08588H7.0961H7.10632H7.11653H7.12675H7.13696H7.14718H7.1574H7.16761H7.17783H7.18805H7.19826H7.20848H7.21869H7.22891H7.23913H7.24934H7.25956H7.26977H7.27999H7.29021H7.30042H7.31064H7.32085H7.33107H7.34129H7.3515H7.36172H7.37193H7.38215H7.39237H7.40258H7.4128H7.42301H7.43323H7.44345H7.45366H7.46388H7.47409H7.48431H7.49452H7.50474H7.51496H7.52517H7.53539H7.5456H7.55582H7.56604H7.57625H7.58647H7.59668H7.6069H7.61712H7.62733H7.63755H7.64776H7.65798H7.66819H7.67841H7.68863H7.69884H7.70906H7.71927H7.72949H7.7397H7.74992H7.76014H7.77035H7.78057H7.79078H7.801H7.81121H7.82143H7.83165H7.84186H7.85208H7.86229H7.87251H7.88272H7.89294H7.90315H7.91337H7.92359H7.9338H7.94402H7.95423H7.96445H7.97466H7.98488H7.99509H8.00531H8.01553H8.02574H8.03596H8.04617H8.05639H8.0666H8.07682H8.08704H8.09725H8.10747H8.11768H8.1279H8.13811H8.14833H8.15854H8.16876H8.17897H8.18919H8.19941H8.20962H8.21984H8.23005H8.24027H8.25048H8.2607H8.27091H8.28113H8.29134H8.30156H8.31178H8.32199H8.33221H8.34242H8.35264H8.36285H8.37307H8.38328H8.3935H8.40371H8.41393H8.42415H8.43436H8.44458H8.45479H8.46501H8.47522H8.48544H8.49565H8.50587H8.51608H8.5263H8.53652H8.54673H8.55695H8.56716H8.57738H8.58759H8.59781H8.60802H8.61824H8.62845H8.63867H8.64888H8.6591H8.66932H8.67953H8.68975H8.69996H8.71018H8.72039H8.73061H8.74082H8.75104H8.76125H8.77147H8.78168H8.7919H8.80212H8.81233H8.82255H8.83276H8.84298H8.85319H8.86341H8.87362H8.88384H8.89405H8.90427H8.91448H8.9247H8.93492H8.94513H8.95535H8.96556H8.97578H8.98599H8.99621H9.00642H9.01664H9.02686H9.03707H9.04729H9.0575H9.06772H9.07793H9.08815H9.09836H9.10858H9.11879H9.12901H9.13923H9.14944H9.15966H9.16987H9.18009H9.1903H9.20052H9.21073H9.22095H9.23116H9.24138H9.2516H9.26181H9.27203H9.28224H9.29246H9.30267H9.31289H9.3231H9.33332H9.34353H9.35375H9.36397H9.37418H9.3844H9.39461H9.40483H9.41504H9.42526H9.43547H9.44569H9.45591H9.46612H9.47634H9.48655H9.49677H9.50698H9.5172H9.52742H9.53763H9.54785H9.55806H9.56828H9.57849H9.58871H9.59892H9.60914H9.61936H9.62957H9.63979H9.65H9.66022H9.67043H9.68065H9.69087H9.70108H9.7113H9.72151H9.73173H9.74194H9.75216H9.76238H9.77259H9.78281H9.79302H9.80324H9.81345H9.82367H9.83389H9.8441H9.85432H9.86453H9.87475H9.88496H9.89518H9.9054H9.91561H9.92583H9.93604H9.94626H9.95648H9.96669H9.97691H9.98712H9.99734H10.0076H10.0178H10.028H10.0382H10.0484H10.0586H10.0689H10.0791H10.0893H10.0995H10.1097H10.1199H10.1301H10.1404H10.1506H10.1608H10.171H10.1812H10.1914H10.2017H10.2119H10.2221H10.2323H10.2425H10.2527H10.263H10.2732H10.2834H10.2936H10.3038H10.314H10.3243H10.3345H10.3447H10.3549H10.3651H10.3753H10.3856H10.3958H10.406H10.4162H10.4264H10.4366H10.4468H10.4571H10.4673H10.4775H10.4877H10.4979H10.5081H10.5184H10.5286H10.5388H10.549H10.5592H10.5694H10.5797H10.5899H10.6001H10.6103H10.6205H10.6307H10.641H10.6512H10.6614H10.6716H10.6818H10.692H10.7023H10.7125H10.7227H10.7329H10.7431H10.7533H10.7636H10.7738H10.784H10.7942H10.8044H10.8146H10.8249H10.8351H10.8453H10.8555H10.8657H10.8759H10.8862H10.8964H10.9066H10.9168H10.927H10.9372H10.9475H10.9577H10.9679H10.9781H10.9883H10.9985H11.0088H11.019H11.0292H11.0394H11.0496H11.0598H11.0701H11.0803H11.0905H11.1007H11.1109H11.1212H11.1314H11.1416H11.1518H11.162H11.1722H11.1825H11.1927H11.2029H11.2131H11.2233H11.2335H11.2438H11.254H11.2642H11.2744H11.2846H11.2948H11.3051H11.3153H11.3255H11.3357H11.346H11.3563H11.3666H11.3769H11.3871H11.3974H11.4077H11.418H11.4283H11.4386H11.4489H11.4591H11.4694H11.4797H11.49H11.5003H11.5106H11.5208H11.5311H11.5414H11.5517H11.562H11.5723H11.5826H11.5928H11.6031H11.6134H11.6237H11.634H11.6443H11.6546H11.6648H11.6751H11.6854H11.6957H11.706H11.7163H11.7265H11.7368H11.7471H11.7574H11.7677H11.778H11.7883H11.7985H11.8088H11.8191H11.8294H11.8397H11.85H11.8603H11.8705H11.8808H11.8911H11.9014H11.9117H11.922H11.9322H11.9425H11.9528H11.9631H11.9734H11.9837H11.994H12.0042H12.0145H12.0248H12.0351H12.0454H12.0557H12.066H12.0762H12.0865H12.0968H12.1071H12.1174H12.1277H12.1379H12.1482H12.1585H12.1688H12.1791H12.1894H12.1997H12.2099H12.2202H12.2305H12.2408H12.2511H12.2614H12.2717H12.2819H12.2922H12.3025H12.3128H12.3231H12.3334H12.3437H12.3539H12.3642H12.3745H12.3848H12.3951H12.4054H12.4156H12.4259H12.4362H12.4465H12.4568H12.4671H12.4774H12.4876H12.4979H12.5082H12.5185H12.5288H12.5391H12.5494H12.5596H12.5699H12.5802H12.5905H12.6008H12.6111H12.6214H12.6316H12.6419H12.6522H12.6625H12.6728H12.6831H12.6934H12.7036H12.7139H12.7242H12.7345H12.7448H12.7551H12.7653H12.7756H12.7859H12.7962H12.8065H12.8168H12.8271H12.8373H12.8476H12.8579H12.8682H12.8785H12.8888H12.8991H12.9093H12.9196H12.9299H12.9402H12.9505H12.9608H12.9711H12.9813H12.9916H13.0019H13.0122H13.0225H13.0328H13.0431H13.0533H13.0636H13.0739H13.0842H13.0945H13.1048H13.1151H13.1253H13.1356H13.1459H13.1562H13.1665H13.1768H13.187H13.1973H13.2076H13.2179H13.2282H13.2385H13.2488H13.259H13.2693H13.2796H13.2899H13.3002H13.3105H13.3208H13.331H13.3413H13.3516H13.3619H13.3722H13.3825H13.3928H13.403H13.4133H13.4236H13.4339H13.4442H13.4545H13.4648H13.475H13.4853H13.4956H13.5059H13.5162H13.5265H13.5368H13.547H13.5573H13.5676H13.5779H13.5882H13.5985H13.6088H13.619H13.6293H13.6396H13.6499H13.6602H13.6705H13.6808H13.691H13.7013H13.7116H13.7219H13.7322H13.7425H13.7528H13.763H13.7733H13.7836H13.7939H13.8042H13.8145H13.8248H13.8351H13.8453H13.8556H13.8659H13.8762H13.8865H13.8968H13.9071H13.9173H13.9276H13.9379H13.9482H13.9585H13.9688H13.9791H13.9893H13.9996H14.0099H14.0202H14.0305H14.0408H14.0511H14.0613H14.0716H14.0819H14.0922H14.1025H14.1128H14.1231H14.1333H14.1436H14.1539H14.1642H14.1745H14.1848H14.1951H14.2053H14.2156H14.2259H14.2362H14.2465H14.2568H14.2671H14.2774H14.2876H14.2979H14.3082H14.3185H14.3288H14.3391H14.3494H14.3596H14.3699H14.3802H14.3905H14.4008H14.4111H14.4214H14.4317H14.4419H14.4522H14.4625H14.4728H14.4831H14.4934H14.5037H14.5139H14.5242H14.5345H14.5448H14.5551H14.5654H14.5757H14.5859H14.5962H14.6065H14.6168H14.6271H14.6374H14.6477H14.658H14.6682H14.6785H14.6888H14.6991H14.7094H14.7197H14.73H14.7402H14.7505H14.7608H14.7711H14.7814H14.7917H14.802H14.8123H14.8225H14.8328H14.8431H14.8534H14.8637H14.874H14.8843H14.8946H14.9048H14.9151H14.9254H14.9357H14.946H14.9563H14.9666H14.9768H14.9871H14.9974H15.0077H15.018H15.0283H15.0386H15.0489H15.0591H15.0694H15.0797H15.09H15.1003H15.1106H15.1209H15.1312H15.1414H15.1517H15.162H15.1723H15.1826H15.1929H15.2032H15.2135H15.2237H15.234H15.2443H15.2546H15.2649H15.2752H15.2855H15.2957H15.306H15.3163H15.3266H15.3369H15.3472H15.3575H15.3678H15.378H15.3883H15.3986H15.4089H15.4192H15.4295H15.4398H15.4501H15.4604H15.4706H15.4809H15.4912H15.5015H15.5118H15.5221H15.5324H15.5427H15.5529H15.5632H15.5735H15.5838H15.5941H15.6044H15.6147H15.625H15.6352H15.6455H15.6558H15.6661H15.6764H15.6867H15.697H15.7073H15.7175H15.7278H15.7381H15.7484H15.7587H15.769H15.7793H15.7896H15.7998H15.8101H15.8204H15.8307H15.841H15.8513H15.8616H15.8719H15.8822H15.8924H15.9027H15.913H15.9233H15.9336H15.9439H15.9542H15.9645H15.9747H15.985H15.9953H16.0056H16.0159H16.0262H16.0365H16.0468H16.0571H16.0673H16.0776H16.0879H16.0982H16.1085H16.1188H16.1291H16.1394H16.1496H16.1599H16.1702H16.1805H16.1908H16.2011H16.2114H16.2217H16.232H16.2422H16.2525H16.2628H16.2731H16.2834H16.2937H16.304H16.3143H16.3246H16.3348H16.3451H16.3554H16.3657H16.376H16.3863H16.3966H16.4069H16.4172H16.4274H16.4377H16.448H16.4583H16.4686H16.4789H16.4892H16.4995H16.5098H16.52H16.5303H16.5406H16.5509H16.5612H16.5715H16.5818H16.5921H16.6024C16.6922 13.7308 16.7325 13.7195 16.7459 13.7143C16.7547 13.7028 16.7785 13.6653 16.8052 13.5719C16.8052 13.5718 16.8052 13.5718 16.8053 13.5717L17.9651 9.51551C18.0638 9.17019 18.1625 8.82476 18.2612 8.47926C18.6439 7.13985 19.0269 5.79941 19.4134 4.46048L19.4136 4.45987C19.4376 4.37702 19.4329 4.33893 19.4307 4.32796L19.4306 4.32756C19.4295 4.32195 19.4257 4.30311 19.3907 4.26641C19.3892 4.26593 19.3873 4.26535 19.3848 4.2647C19.3586 4.25789 19.3111 4.25206 19.2072 4.25206C17.2507 4.25289 15.2944 4.25319 13.3382 4.25349C10.208 4.25396 7.07808 4.25444 3.9478 4.2571L3.94729 4.2571C3.84342 4.2571 3.65553 4.24848 3.4709 4.14354C3.27503 4.0322 3.16348 3.86174 3.10499 3.69461L3.10349 3.69198C3.09989 3.68567 3.09524 3.67745 3.0902 3.6682C3.08512 3.65889 3.07921 3.64777 3.07297 3.63527L3.60962 3.36695M5.87602 13.5612L2.0291 1.59181M5.87602 13.5612C5.31374 11.5741 4.75218 9.58779 4.19061 7.60068L4.19059 7.60063M5.87602 13.5612L4.19059 7.60063M3.60962 3.36695L3.07392 3.63718C2.9957 3.48211 2.91718 3.32676 2.83854 3.17116C2.59049 2.68034 2.34121 2.18712 2.09598 1.69282M3.60962 3.36695C3.53094 3.21097 3.45213 3.05503 3.37331 2.89908C3.12544 2.40862 2.87752 1.91808 2.63333 1.42588M3.60962 3.36695C3.61586 3.37943 3.6229 3.39166 3.62994 3.4039C3.64402 3.42838 3.6581 3.45286 3.66578 3.47926C3.70826 3.62254 3.80042 3.6571 3.94729 3.6571C7.07766 3.65444 10.208 3.65396 13.3384 3.65349C15.2947 3.65319 17.251 3.65289 19.2072 3.65206L2.02639 0.991016C2.32086 0.996056 2.5059 1.16957 2.63333 1.42588M2.09598 1.69282C2.09594 1.69273 2.09589 1.69263 2.09584 1.69254L2.63333 1.42588M2.09598 1.69282C2.09601 1.69288 2.09604 1.69294 2.09607 1.693L2.63333 1.42588M2.09598 1.69282C2.06209 1.6247 2.03697 1.5988 2.0291 1.59181M2.0291 1.59181C2.03156 1.59215 2.03267 1.59247 2.03268 1.59248C2.03268 1.59249 2.03233 1.5924 2.03167 1.59218C2.02936 1.59138 2.02762 1.59036 2.02704 1.59003C2.02679 1.58988 2.02676 1.58986 2.02699 1.59004C2.02742 1.59037 2.02813 1.59094 2.0291 1.59181ZM4.19059 7.60063C4.09757 7.27159 4.0047 6.94187 3.91174 6.61182M4.19059 7.60063L3.91174 6.61182M2.62547 3.05037L2.62555 3.05054C2.71748 3.2552 2.80672 3.42816 2.90305 3.61484C2.97582 3.75587 3.05263 3.90474 3.1377 4.08102L2.62547 3.05037ZM2.62547 3.05037C2.44554 2.65014 2.19741 2.30067 1.86679 2.00131L1.86663 2.00117M2.62547 3.05037L1.86663 2.00117M1.86663 2.00117C1.7112 1.86054 1.48369 1.71023 1.14534 1.72189M1.86663 2.00117L1.14534 1.72189M3.91174 6.61182C3.72549 5.95059 3.53888 5.28806 3.34997 4.6271L3.91174 6.61182ZM1.14534 1.72189L1.16601 2.32154M1.14534 1.72189L1.16601 2.32154M1.16601 2.32154L1.14844 1.72179C0.9495 1.72762 0.796436 1.72879 0.658591 1.7094L1.16601 2.32154ZM0.636353 1.59683C1.08622 1.57557 1.5407 1.58296 2.01612 1.59093L0.600033 1.65475C0.600039 1.65456 0.600045 1.65438 0.600052 1.65419C0.601417 1.61691 0.613802 1.60261 0.614881 1.60144C0.615637 1.60063 0.615854 1.60053 0.616385 1.60029L0.616416 1.60027L0.616434 1.60026C0.616919 1.60004 0.62242 1.59748 0.635936 1.59685L0.636353 1.59683ZM16.7422 13.7185C16.7422 13.7184 16.7427 13.7179 16.7437 13.7169C16.7427 13.7181 16.7422 13.7185 16.7422 13.7185ZM16.7488 13.7131C16.7503 13.7121 16.7512 13.7117 16.7512 13.7118C16.7513 13.7118 16.7505 13.7123 16.7488 13.7131ZM5.93061 13.7097C5.93065 13.7096 5.93133 13.71 5.93254 13.7107C5.93118 13.7101 5.93057 13.7097 5.93061 13.7097ZM5.93985 13.7162C5.94105 13.7173 5.94161 13.718 5.94159 13.7181C5.94158 13.7181 5.94097 13.7176 5.93985 13.7162ZM3.34991 4.6269C3.29398 4.43079 3.21768 4.24675 3.13771 4.08104L3.34991 4.6269Z" stroke="white" stroke-width="1.2"/>
<path d="M6.09713 15.7317H6.09738C7.26356 15.7322 8.42928 15.732 9.5953 15.7319C10.1784 15.7318 10.7617 15.7317 11.3451 15.7317C11.9203 15.7317 12.4954 15.7318 13.0704 15.7319C14.2204 15.732 15.3701 15.7322 16.52 15.7317L16.5203 15.7317C16.6095 15.7317 16.6502 15.7316 16.6866 15.7276L6.09713 15.7317ZM6.09713 15.7317C6.00137 15.7317 5.96098 15.7151 5.95111 15.7101C5.9487 15.7059 5.94327 15.6952 5.93752 15.6746C5.92826 15.6404 5.95112 15.6085 5.97955 15.6026L5.85882 15.0149L5.97776 15.603C6.0061 15.5972 6.03241 15.5947 6.05465 15.5947H6.05477M6.09713 15.7317L6.05477 15.5947M6.05477 15.5947H6.05512C9.57789 15.594 13.0997 15.5933 16.6223 15.5947H16.6225M6.05477 15.5947H16.6225M16.6225 15.5947C16.7129 15.5947 16.7432 15.6296 16.7474 15.6351M16.6225 15.5947L16.7474 15.6351M16.7474 15.6351C16.7506 15.6394 16.7513 15.6422 16.7517 15.6447M16.7474 15.6351L16.7517 15.6447M16.7517 15.6447C16.752 15.6467 16.7535 15.6583 16.7444 15.682M16.7517 15.6447L16.7444 15.682M16.7444 15.682C16.7364 15.7027 16.7296 15.7135 16.7266 15.7177M16.7444 15.682L16.7266 15.7177M16.7266 15.7177C16.7262 15.7183 16.7258 15.7188 16.7255 15.7192M16.7266 15.7177L16.7255 15.7192M16.7255 15.7192C16.7238 15.7214 16.7238 15.7209 16.7256 15.7195C16.7275 15.718 16.7281 15.7181 16.7255 15.7192ZM16.7255 15.7192C16.7252 15.7193 16.7248 15.7195 16.7244 15.7196M16.7255 15.7192L16.7244 15.7196M16.7244 15.7196C16.7201 15.7213 16.7084 15.7251 16.6867 15.7275L16.7244 15.7196Z" stroke="white" stroke-width="1.2"/>
<path d="M7.33927 20.3999L7.33966 20.3999C8.1179 20.3984 8.73776 19.7778 8.73877 19.0005C8.73978 18.2267 8.11377 17.5991 7.34253 17.5976L7.34214 17.5976C6.56948 17.5955 5.93676 18.2251 5.93424 18.9917L7.33927 20.3999ZM7.33927 20.3999C6.56112 20.4019 5.93172 19.7721 5.93424 18.9917L7.33927 20.3999Z" stroke="white" stroke-width="1.2"/>
<path d="M13.9467 19.0006C13.9467 19.7766 14.5663 20.3979 15.344 20.3999C16.1202 20.402 16.7442 19.7812 16.7469 19.0069L13.9467 19.0006ZM13.9467 19.0006C13.9467 18.2202 14.5754 17.5941 15.357 17.5976L13.9467 19.0006ZM15.357 17.5976C16.1249 17.6011 16.7488 18.2285 16.7469 19.0068L15.357 17.5976Z" stroke="white" stroke-width="1.2"/>
</svg>
